{
	"page": 2,
	"per_page": 3,
	"total": 7,
	"total_pages": 32,
	"data": [
		{
			"id": 7,
			"email": "shri@2018",
			"first_name": "shri",
			"last_name": "Krishna",
			"avatar": "https://jkdhsah"
		},
		{
			"id": 12,
			"email": "sakthi@gmail",
			"first_name": "shakthi",
			"last_name": "Prakash",
			"avatar": "jhjkj"
		}
	],
	"support": {
		"url": "https://www.fb.com",
		"text": "Krishna"
	}
}